<?xml version="1.0" encoding="UTF-8"?>
<svg width="100px" height="134px" viewBox="0 0 100 134" version="1.1" xmlns="http://www.w3.org/2000/svg" xmlns:xlink="http://www.w3.org/1999/xlink">
    <!-- Generator: Sketch 52.2 (67145) - http://www.bohemiancoding.com/sketch -->
    <title>logo</title>
    <desc>Created with Sketch.</desc>
    <g id="Page-1" stroke="none" stroke-width="1" fill="none" fill-rule="evenodd">
        <g id="Desktop" transform="translate(-584.000000, -236.000000)" fill="#F55145">
            <g id="logo" transform="translate(584.000000, 236.000000)">
                <path d="M97.8993239,71.9875212 C96.9064917,76.3450253 94.6726193,83.1002702 88.9638341,89.0612171 C87.5748465,90.4892552 86.0814996,91.8125932 84.4960891,93.0203349 C77.9334682,98.2315239 70.3904255,101.92835 62.8101516,105.392578 C57.5977825,107.772998 52.5616411,110.519636 47.5478385,113.28607 C45.0384551,114.669286 42.5365179,116.062401 40.012242,117.420873 C38.314499,118.333945 35.4675526,119.764176 33.8616465,117.769771 C32.3723982,115.93373 34.5789678,113.244004 35.8473109,111.954816 C39.2676179,108.490588 43.5889201,107.104897 47.7612974,104.902637 L72.0856865,92.0355044 C72.6180478,91.5777959 73.1158147,91.0815596 73.5749348,90.5508352 C76.8214961,86.7921476 77.094525,82.2292643 77.2980556,76.6939226 C77.5462637,70.0995169 77.5785307,64.5047884 77.5462637,60.1151165 C77.5462637,59.9864451 77.4370521,57.2348582 75.0641831,55.9085537 C73.0785187,54.8049496 71.1077468,55.557182 70.8446463,55.6611088 L43.2935525,69.2705766 C40.0240436,71.2504948 38.1153949,74.8657768 38.3293914,78.6734815 C38.1639194,83.1274891 37.9984474,87.5814968 37.8329753,92.0355044 C37.6423314,93.6880152 36.4634277,95.0591738 34.8544787,95.4997325 C33.8452179,95.5675472 32.854017,95.2082187 32.1241901,94.509953 C31.3614813,93.7197988 30.9967456,92.6289562 31.1313579,91.5406146 L31.1313579,81.3904262 C31.1809995,81.0563756 31.2902111,79.999786 30.6349418,79.1634224 C29.7662136,78.0523949 27.8773504,77.7455633 26.1671969,78.6685326 C20.4137342,81.656017 14.6586169,84.6377276 8.90184478,87.6136646 C7.96113626,88.1085543 6.93851909,88.6034441 5.89604527,88.4302327 C4.78159112,88.2545468 3.88059589,87.2969352 3.62494159,86.2032288 C2.71650012,82.3133955 7.59627043,79.3440571 10.4630734,77.9930081 C20.7115839,73.1727821 30.6051569,67.7240461 40.6004951,62.4039815 C46.3638861,59.3381396 52.3010227,56.4653047 57.9378275,53.1792368 C66.0441217,48.4475133 71.4627763,40.2071843 72.5821026,30.9091987 C72.979815,29.1231406 73.1466418,27.2936883 73.0785187,25.4654117 C72.9916459,23.134481 72.6491188,20.0067779 71.3634011,18 C70.3705689,20.4274342 69.9138661,23.0478753 68.7323957,25.4604628 C61.7825703,39.7058638 45.8798804,45.4861759 32.7422282,52.496289 C28.2546266,54.8915553 23.734758,57.3140406 19.3712604,59.919635 C15.2460426,62.3940837 10.6839786,64.1930079 6.70023936,66.8678869 C2.0314459,70.0079623 0.418093561,75.6026907 0.105351416,80.9351276 C-0.232211535,86.6931697 0.353559468,92.5972042 0.306399938,98.3799908 C0.306399938,99.6023684 0.306399938,100.906403 0.98400792,101.930825 C1.80061241,103.168049 3.43630347,103.690158 4.92306971,103.556537 C7.1916913,103.356107 9.22451525,101.930825 11.3218733,101.178592 C16.2165361,99.4167848 19.9346927,95.6407761 25.0949381,94.4357196 C26.1895356,94.1882747 27.4181655,94.0323845 28.3787306,94.6213032 C29.1630681,95.1038207 29.6023963,95.9896734 29.8679789,96.8681026 C30.5753719,99.2015077 30.1881673,101.505219 30.1832032,103.870792 C30.1832032,106.562993 30.2055419,109.257667 30.2154702,111.949867 C30.2386363,117.428297 30.2618024,122.907551 30.2849685,128.38763 C30.2849685,129.513504 30.3048251,130.686393 30.8086875,131.693493 C31.8015197,133.645833 34.370473,134.341153 36.5025802,133.846264 C38.6744006,133.351374 40.3895183,131.866705 42.2485966,130.738356 C49.9082971,126.106188 57.8310981,121.931793 65.7836841,117.826683 C69.7550129,115.772891 73.7536446,113.738894 77.7274555,111.670255 C81.2718665,109.824316 84.9900231,108.121895 88.1521937,105.65487 C97.7230962,98.2166772 103.27551,83.4071018 97.8993239,71.9875212 Z M47.6496038,80.9945144 L65.7911303,72.0864991 C67.5103231,71.2448658 69.5884824,71.9487362 70.437585,73.6602485 L70.5964382,73.9670801 C71.4406673,75.6809868 70.734626,77.7527562 69.017835,78.5992481 L45.0310088,90.3776238 L44.6934459,89.6922015 C43.101622,86.476521 44.4248772,82.5832039 47.6496038,80.9945144 Z" id="Shape" fill-rule="nonzero"></path>
                <path d="M79.2309536,10.2573938 L72.8584498,16.2758658 C71.8295508,17.2413781 70.1683557,17.2413781 69.1394567,16.2758658 L62.766953,10.2573938 C61.744349,9.28483291 61.744349,7.71516709 62.766953,6.74260618 L69.1394567,0.724134174 C70.1683557,-0.241378058 71.8295508,-0.241378058 72.8584498,0.724134174 L79.2309536,6.74260618 C80.2563488,7.71407903 80.2563488,9.28592097 79.2309536,10.2573938 Z" id="Path"></path>
            </g>
        </g>
    </g>
</svg>